Data preparation: Pilot study - Facebook
…
Figure 5.2: Missing en tax justo

Nota: A nivel descriptivo no parece haber un marcado de NA asociado a viñetas. No obstante es importante ver que las viñetas con mayor cantidad de missing son las del deck 02 y 08.

5.3 Revisar Patron de NA de viñetas within sujetos

tab_na<- tax_na_wvig %>% filter(taxperc_na >0 | taxjust_na >0)
tab_na

## # A tibble: 913 x 7
##    respondeid         deck    id deck_vig taxperc_na taxjust_na id_vig_deck
##    <chr>             <int> <int> <chr>         <int>      <int> <chr>      
##  1 R_12F4Hij54Lg4ani     7     1 71                1          1 d07v01     
##  2 R_12F4Hij54Lg4ani     7     2 72                1          1 d07v02     
##  3 R_12F4Hij54Lg4ani     7     3 73                1          1 d07v03     
##  4 R_12F4Hij54Lg4ani     7     4 74                1          1 d07v04     
##  5 R_12F4Hij54Lg4ani     7     5 75                1          1 d07v05     
##  6 R_12F4Hij54Lg4ani     7     6 76                1          1 d07v06     
##  7 R_12F4Hij54Lg4ani     7     7 77                1          1 d07v07     
##  8 R_12F4Hij54Lg4ani     7     8 78                1          1 d07v08     
##  9 R_12F4Hij54Lg4ani     7     9 79                1          1 d07v09     
## 10 R_12F4Hij54Lg4ani     7    10 710               1          1 d07v10     
## # ... with 903 more rows

Seleccionamos los sujetos que tienen missing en al menos 1 de las variables de impuestos

tab_na_gt0 <- tab_na %>% group_by(respondeid) %>% summarise(n_taxperc_na=sum(taxperc_na),n_taxjust_na=sum(taxjust_na)) %>% arrange(n_taxperc_na,n_taxjust_na)
n2<- tab_na_gt0 %>% filter(n_taxperc_na>=5 | n_taxjust_na>=5) %>% dim()

Nota: Existen 82 respondentes que tienen 5 o más missing en taxperc o taxjust

idresp_gt5 <- tab_na_gt0 %>% filter(n_taxperc_na>=5 | n_taxjust_na>=5)
idresp_gt5

## # A tibble: 82 x 3
##    respondeid        n_taxperc_na n_taxjust_na
##    <chr>                    <int>        <int>
##  1 R_2zr5jxoLyHGEEZU            5            5
##  2 R_31baZjQptVijeSG            5            5
##  3 R_3rIhQNXRJP2xPeU            5            5
##  4 R_BRivf7BUUiQEFW1            5            5
##  5 R_uz9qMiTIbPl38bf            5            5
##  6 R_2wujoBd6ryKqHpP            5            6
##  7 R_2Pvc8zKXPzO9zAC            6            6
##  8 R_2rSFf50GErGbulE            6            6
##  9 R_xaQzTbeas2Tzo41            6            6
## 10 R_12gMsghcrLmITZJ            7            7
## # ... with 72 more rows
…
