Data preparation: Pilot study - Netquest
…
Figure 5.2: Missing en tax justo

Nota: A nivel descriptivo no parece haber un marcado de NA asociado a viñetas. No obstante es importante ver que las viñetas con mayor cantidad de missing son las del deck 02 y 08.

5.3 Revisar Patron de NA de viñetas within sujetos

tab_na<- tax_na_wvig %>% filter(taxperc_na >0 | taxjust_na >0)
tab_na

## # A tibble: 40 x 7
##    respondeid         deck    id deck_vig taxperc_na taxjust_na id_vig_deck
##    <chr>             <int> <int> <chr>         <int>      <int> <chr>      
##  1 R_1mKTaEYxkYVpg6m     8     3 83                1          1 d08v03     
##  2 R_1mKTaEYxkYVpg6m     8     4 84                1          1 d08v04     
##  3 R_20Ulek8WqvTqEzf     5     2 52                0          1 d05v02     
##  4 R_24AETytJft7yz1T     8     1 81                1          1 d08v01     
##  5 R_24AETytJft7yz1T     8     2 82                1          1 d08v02     
##  6 R_24AETytJft7yz1T     8     5 85                1          0 d08v05     
##  7 R_24AETytJft7yz1T     8     6 86                1          1 d08v06     
##  8 R_24AETytJft7yz1T     8     7 87                1          1 d08v07     
##  9 R_24AETytJft7yz1T     8     8 88                1          1 d08v08     
## 10 R_24AETytJft7yz1T     8     9 89                1          1 d08v09     
## # ... with 30 more rows
…
